Chapter 10 Data transformation in R | Fall 2020 EDAV Community Contributions
…
mutate: create or rename variables

summarize: aggregate observations

group_by: group observations by variables

All dplyr “verbs” are functions that take a data frame and return a data frame after the operation

To explore the basic data manipulation of dplur, we will demonstrate using nycflights13::flights. It’s a dataset which contains information of 336,776 flights that departed from New York City in 2013. You can access it by installing the packages ‘nycflights13’.

library(tidyverse)
library(nycflights13)
nycflights13::flights

## # A tibble: 336,776 x 19
##     year month   day dep_time sched_dep_time dep_delay arr_time sched_arr_time
##    <int> <int> <int>    <int>          <int>     <dbl>    <int>          <int>
##  1  2013     1     1      517            515         2      830            819
##  2  2013     1     1      533            529         4      850            830
##  3  2013     1     1      542            540         2      923            850
##  4  2013     1     1      544            545        -1     1004           1022
##  5  2013     1     1      554            600        -6      812            837
##  6  2013     1     1      554            558        -4      740            728
##  7  2013     1     1      555            600        -5      913            854
##  8  2013     1     1      557            600        -3      709            723
##  9  2013     1     1      557            600        -3      838            846
## 10  2013     1     1      558            600        -2      753            745
## # … with 336,766 more rows, and 11 more variables: arr_delay <dbl>,
## #   carrier <chr>, flight <int>, tailnum <chr>, origin <chr>, dest <chr>,
## #   air_time <dbl>, distance <dbl>, hour <dbl>, minute <dbl>, time_hour <dttm>
…
Tidy_flight<-filter(flights,!is.na(dep_time))
dep_num = nrow(Tidy_flight)

What we found:

we remove over 8,000 rows whose dep_time is NA. The total number of observations after removing the NA objects in dep_time is dep_num, which is 328521.

More importantly, we can cooperate with logical operators ! (not), | (or), & (and) and some statistical rules such as De Morgan’s Law, to add more conditions in the filter function in a way you like.

Below three approaches are equivalent to find flights in January and Feburary.

filter(flights, month == 1 | month == 2)

## # A tibble: 51,955 x 19
##     year month   day dep_time sched_dep_time dep_delay arr_time sched_arr_time
##    <int> <int> <int>    <int>          <int>     <dbl>    <int>          <int>
##  1  2013     1     1      517            515         2      830            819
##  2  2013     1     1      533            529         4      850            830
##  3  2013     1     1      542            540         2      923            850
##  4  2013     1     1      544            545        -1     1004           1022
##  5  2013     1     1      554            600        -6      812            837
##  6  2013     1     1      554            558        -4      740            728
##  7  2013     1     1      555            600        -5      913            854
##  8  2013     1     1      557            600        -3      709            723
##  9  2013     1     1      557            600        -3      838            846
## 10  2013     1     1      558            600        -2      753            745
## # … with 51,945 more rows, and 11 more variables: arr_delay <dbl>,
## #   carrier <chr>, flight <int>, tailnum <chr>, origin <chr>, dest <chr>,
## #   air_time <dbl>, distance <dbl>, hour <dbl>, minute <dbl>, time_hour <dttm>

filter(flights, month %in% c(1, 2))

## # A tibble: 51,955 x 19
##     year month   day dep_time sched_dep_time dep_delay arr_time sched_arr_time
##    <int> <int> <int>    <int>          <int>     <dbl>    <int>          <int>
##  1  2013     1     1      517            515         2      830            819
##  2  2013     1     1      533            529         4      850            830
##  3  2013     1     1      542            540         2      923            850
##  4  2013     1     1      544            545        -1     1004           1022
##  5  2013     1     1      554            600        -6      812            837
##  6  2013     1     1      554            558        -4      740            728
##  7  2013     1     1      555            600        -5      913            854
##  8  2013     1     1      557            600        -3      709            723
##  9  2013     1     1      557            600        -3      838            846
## 10  2013     1     1      558            600        -2      753            745
## # … with 51,945 more rows, and 11 more variables: arr_delay <dbl>,
## #   carrier <chr>, flight <int>, tailnum <chr>, origin <chr>, dest <chr>,
## #   air_time <dbl>, distance <dbl>, hour <dbl>, minute <dbl>, time_hour <dttm>

filter(flights, month <=2 )

## # A tibble: 51,955 x 19
##     year month   day dep_time sched_dep_time dep_delay arr_time sched_arr_time
##    <int> <int> <int>    <int>          <int>     <dbl>    <int>          <int>
##  1  2013     1     1      517            515         2      830            819
##  2  2013     1     1      533            529         4      850            830
##  3  2013     1     1      542            540         2      923            850
##  4  2013     1     1      544            545        -1     1004           1022
##  5  2013     1     1      554            600        -6      812            837
##  6  2013     1     1      554            558        -4      740            728
##  7  2013     1     1      555            600        -5      913            854
##  8  2013     1     1      557            600        -3      709            723
##  9  2013     1     1      557            600        -3      838            846
## 10  2013     1     1      558            600        -2      753            745
## # … with 51,945 more rows, and 11 more variables: arr_delay <dbl>,
## #   carrier <chr>, flight <int>, tailnum <chr>, origin <chr>, dest <chr>,
## #   air_time <dbl>, distance <dbl>, hour <dbl>, minute <dbl>, time_hour <dttm>

10.3.1.1 More exercises:

Find flights that:

Were delayed by at least an hour, but made up over 30 minutes in flight

filter(flights, dep_delay > 60, dep_delay - arr_delay >= 30)

## # A tibble: 2,046 x 19
##     year month   day dep_time sched_dep_time dep_delay arr_time sched_arr_time
##    <int> <int> <int>    <int>          <int>     <dbl>    <int>          <int>
##  1  2013     1     1     1716           1545        91     2140           2039
##  2  2013     1     1     2205           1720       285       46           2040
##  3  2013     1     1     2326           2130       116      131             18
##  4  2013     1     3     1503           1221       162     1803           1555
##  5  2013     1     3     1821           1530       171     2131           1910
##  6  2013     1     3     1839           1700        99     2056           1950
##  7  2013     1     3     1850           1745        65     2148           2120
##  8  2013     1     3     1923           1815        68     2036           1958
##  9  2013     1     3     1941           1759       102     2246           2139
## 10  2013     1     3     1950           1845        65     2228           2227
## # … with 2,036 more rows, and 11 more variables: arr_delay <dbl>,
## #   carrier <chr>, flight <int>, tailnum <chr>, origin <chr>, dest <chr>,
## #   air_time <dbl>, distance <dbl>, hour <dbl>, minute <dbl>, time_hour <dttm>

Flew to Boston operated by United, American or Delta in Summer (June to August)

filter(flights, dest == "BOS",
carrier == "UA" | carrier == "AA" | carrier == "DL",
month %in% c(6, 7, 8))

## # A tibble: 1,663 x 19
##     year month   day dep_time sched_dep_time dep_delay arr_time sched_arr_time
##    <int> <int> <int>    <int>          <int>     <dbl>    <int>          <int>
##  1  2013     6     1      816            820        -4      920            930
##  2  2013     6     1     1022           1025        -3     1130           1150
##  3  2013     6     1     1240           1245        -5     1343           1350
##  4  2013     6     1     1519           1530       -11     1705           1702
##  5  2013     6     1     1524           1445        39     1634           1615
##  6  2013     6     1     1555           1600        -5     1705           1720
##  7  2013     6     1     1954           1955        -1     2116           2110
##  8  2013     6     1     2010           2000        10     2115           2130
##  9  2013     6     1     2124           2125        -1     2224           2256
## 10  2013     6     1     2152           2159        -7     2252           2328
## # … with 1,653 more rows, and 11 more variables: arr_delay <dbl>,
## #   carrier <chr>, flight <int>, tailnum <chr>, origin <chr>, dest <chr>,
## #   air_time <dbl>, distance <dbl>, hour <dbl>, minute <dbl>, time_hour <dttm>
10.3.2 2. Arrange( )

Arrange( ) function lets us to reorder the rows in a order that we want:

arrange (.data, variable1, variable2,…, .by_group = FALSE)

It’s default in increasing order. To reorder decreasingly, use desc. You can also reorder the rows by group, using .by_group.

Example: 

we can reorder the flight by the delay in departure in a increasing order.

arrange(flights, dep_delay)

## # A tibble: 336,776 x 19
##     year month   day dep_time sched_dep_time dep_delay arr_time sched_arr_time
##    <int> <int> <int>    <int>          <int>     <dbl>    <int>          <int>
##  1  2013    12     7     2040           2123       -43       40           2352
##  2  2013     2     3     2022           2055       -33     2240           2338
##  3  2013    11    10     1408           1440       -32     1549           1559
##  4  2013     1    11     1900           1930       -30     2233           2243
##  5  2013     1    29     1703           1730       -27     1947           1957
##  6  2013     8     9      729            755       -26     1002            955
##  7  2013    10    23     1907           1932       -25     2143           2143
##  8  2013     3    30     2030           2055       -25     2213           2250
##  9  2013     3     2     1431           1455       -24     1601           1631
## 10  2013     5     5      934            958       -24     1225           1309
## # … with 336,766 more rows, and 11 more variables: arr_delay <dbl>,
## #   carrier <chr>, flight <int>, tailnum <chr>, origin <chr>, dest <chr>,
## #   air_time <dbl>, distance <dbl>, hour <dbl>, minute <dbl>, time_hour <dttm>

What we found:

The data has been reorder by dep_delay value from small to large.

we can reorder the flight by the delay in departure in a decreasing order.

arrange(flights, desc(dep_delay))

## # A tibble: 336,776 x 19
##     year month   day dep_time sched_dep_time dep_delay arr_time sched_arr_time
##    <int> <int> <int>    <int>          <int>     <dbl>    <int>          <int>
##  1  2013     1     9      641            900      1301     1242           1530
##  2  2013     6    15     1432           1935      1137     1607           2120
##  3  2013     1    10     1121           1635      1126     1239           1810
##  4  2013     9    20     1139           1845      1014     1457           2210
##  5  2013     7    22      845           1600      1005     1044           1815
##  6  2013     4    10     1100           1900       960     1342           2211
##  7  2013     3    17     2321            810       911      135           1020
##  8  2013     6    27      959           1900       899     1236           2226
##  9  2013     7    22     2257            759       898      121           1026
## 10  2013    12     5      756           1700       896     1058           2020
## # … with 336,766 more rows, and 11 more variables: arr_delay <dbl>,
## #   carrier <chr>, flight <int>, tailnum <chr>, origin <chr>, dest <chr>,
## #   air_time <dbl>, distance <dbl>, hour <dbl>, minute <dbl>, time_hour <dttm>

What we found:

The data has been reorder by dep_delay value from large to small.

we can reorder the flight by the month and day.

arrange(flights, month, day)

## # A tibble: 336,776 x 19
##     year month   day dep_time sched_dep_time dep_delay arr_time sched_arr_time
##    <int> <int> <int>    <int>          <int>     <dbl>    <int>          <int>
##  1  2013     1     1      517            515         2      830            819
##  2  2013     1     1      533            529         4      850            830
##  3  2013     1     1      542            540         2      923            850
##  4  2013     1     1      544            545        -1     1004           1022
##  5  2013     1     1      554            600        -6      812            837
##  6  2013     1     1      554            558        -4      740            728
##  7  2013     1     1      555            600        -5      913            854
##  8  2013     1     1      557            600        -3      709            723
##  9  2013     1     1      557            600        -3      838            846
## 10  2013     1     1      558            600        -2      753            745
## # … with 336,766 more rows, and 11 more variables: arr_delay <dbl>,
## #   carrier <chr>, flight <int>, tailnum <chr>, origin <chr>, dest <chr>,
## #   air_time <dbl>, distance <dbl>, hour <dbl>, minute <dbl>, time_hour <dttm>

What we found:

The data has been reorder by 2 variables: month and day. For the object with same month, they are reordering by day.

we can reorder the flight by the delay in departure in a decreasing order group by carrier.

flights%>%group_by(carrier)%>%arrange(desc(dep_delay),.by_group = TRUE)

## # A tibble: 336,776 x 19
## # Groups:   carrier [16]
##     year month   day dep_time sched_dep_time dep_delay arr_time sched_arr_time
##    <int> <int> <int>    <int>          <int>     <dbl>    <int>          <int>
##  1  2013     2    16      757           1930       747     1013           2149
##  2  2013     7    24     1525            815       430     1808           1030
##  3  2013    11    27     1503            815       408     1628            952
##  4  2013     2    27     1529            845       404     1639           1015
##  5  2013     7     7     2228           1559       389       NA           1828
##  6  2013     6    25     1421            805       376     1602            950
##  7  2013     1    25       15           1815       360      208           1958
##  8  2013    12    14     1425            825       360     1604            938
##  9  2013     9    12     2159           1600       359     2400           1818
## 10  2013     7    22     2216           1620       356      116           1853
## # … with 336,766 more rows, and 11 more variables: arr_delay <dbl>,
## #   carrier <chr>, flight <int>, tailnum <chr>, origin <chr>, dest <chr>,
## #   air_time <dbl>, distance <dbl>, hour <dbl>, minute <dbl>, time_hour <dttm>
…
ends_with(“xyz”): matches names ending with “xyz”

contains(“ijk”): matches names containing “ijk”

num_range(“x”, 1:3): matches x1, x2, x3

We can use the operators in selecting the variables easily and use c( ) to combine selections.

Example:

Select year, month, day, destination columns from flights.

select(flights, year:day, dest)

## # A tibble: 336,776 x 4
##     year month   day dest 
##    <int> <int> <int> <chr>
##  1  2013     1     1 IAH  
##  2  2013     1     1 IAH  
##  3  2013     1     1 MIA  
##  4  2013     1     1 BQN  
##  5  2013     1     1 ATL  
##  6  2013     1     1 ORD  
##  7  2013     1     1 FLL  
##  8  2013     1     1 IAD  
##  9  2013     1     1 MCO  
## 10  2013     1     1 ORD  
## # … with 336,766 more rows

we can also use the columns number to represent the columns name.

select(flights, 1:3, 14)

## # A tibble: 336,776 x 4
##     year month   day dest 
##    <int> <int> <int> <chr>
##  1  2013     1     1 IAH  
##  2  2013     1     1 IAH  
##  3  2013     1     1 MIA  
##  4  2013     1     1 BQN  
##  5  2013     1     1 ATL  
##  6  2013     1     1 ORD  
##  7  2013     1     1 FLL  
##  8  2013     1     1 IAD  
##  9  2013     1     1 MCO  
## 10  2013     1     1 ORD  
## # … with 336,766 more rows

we can also use | to union the variable set.

select(flights, 1:3|14)

## # A tibble: 336,776 x 4
##     year month   day dest 
##    <int> <int> <int> <chr>
##  1  2013     1     1 IAH  
##  2  2013     1     1 IAH  
##  3  2013     1     1 MIA  
##  4  2013     1     1 BQN  
##  5  2013     1     1 ATL  
##  6  2013     1     1 ORD  
##  7  2013     1     1 FLL  
##  8  2013     1     1 IAD  
##  9  2013     1     1 MCO  
## 10  2013     1     1 ORD  
## # … with 336,766 more rows

Select all columns except year, month, day, destination from flights.

select(flights, !year:day, !dest)

## # A tibble: 336,776 x 19
##    dep_time sched_dep_time dep_delay arr_time sched_arr_time arr_delay carrier
##       <int>          <int>     <dbl>    <int>          <int>     <dbl> <chr>  
##  1      517            515         2      830            819        11 UA     
##  2      533            529         4      850            830        20 UA     
##  3      542            540         2      923            850        33 AA     
##  4      544            545        -1     1004           1022       -18 B6     
##  5      554            600        -6      812            837       -25 DL     
##  6      554            558        -4      740            728        12 UA     
##  7      555            600        -5      913            854        19 B6     
##  8      557            600        -3      709            723       -14 EV     
##  9      557            600        -3      838            846        -8 B6     
## 10      558            600        -2      753            745         8 AA     
## # … with 336,766 more rows, and 12 more variables: flight <int>, tailnum <chr>,
## #   origin <chr>, dest <chr>, air_time <dbl>, distance <dbl>, hour <dbl>,
## #   minute <dbl>, time_hour <dttm>, year <int>, month <int>, day <int>

We can also use the c( ) to combine the variables.

select(flights, !c(year:day,dest))

## # A tibble: 336,776 x 15
##    dep_time sched_dep_time dep_delay arr_time sched_arr_time arr_delay carrier
##       <int>          <int>     <dbl>    <int>          <int>     <dbl> <chr>  
##  1      517            515         2      830            819        11 UA     
##  2      533            529         4      850            830        20 UA     
##  3      542            540         2      923            850        33 AA     
##  4      544            545        -1     1004           1022       -18 B6     
##  5      554            600        -6      812            837       -25 DL     
##  6      554            558        -4      740            728        12 UA     
##  7      555            600        -5      913            854        19 B6     
##  8      557            600        -3      709            723       -14 EV     
##  9      557            600        -3      838            846        -8 B6     
## 10      558            600        -2      753            745         8 AA     
## # … with 336,766 more rows, and 8 more variables: flight <int>, tailnum <chr>,
## #   origin <chr>, air_time <dbl>, distance <dbl>, hour <dbl>, minute <dbl>,
## #   time_hour <dttm>
…
