Chapter 4 Data Preprocessing and Feature Engineering in R | Fall 2020 EDAV Community Contributions
…
## # A tibble: 6 x 3
##   variable n_miss pct_miss
##   <chr>     <int>    <dbl>
## 1 Ozone        37    24.2 
## 2 Solar.R       7     4.58
## 3 Wind          0     0   
## 4 Temp          0     0   
## 5 Month         0     0   
## 6 Day           0     0

Getting the summary for each row, or each case, can be achieved using miss_case_summary(). “case” is the row number of the observation. n_miss is the number of missing values in that row, and pct_miss is the percentage.

miss_case_summary(airquality)

## # A tibble: 153 x 3
##     case n_miss pct_miss
##    <int>  <int>    <dbl>
##  1     5      2     33.3
##  2    27      2     33.3
##  3     6      1     16.7
##  4    10      1     16.7
##  5    11      1     16.7
##  6    25      1     16.7
##  7    26      1     16.7
##  8    32      1     16.7
##  9    33      1     16.7
## 10    34      1     16.7
## # … with 143 more rows
…
